{
  "deployEndpoint": "",
  "i18nPath": "locales/",
  "componentsPath": "./components/",
  "composerEndpoint": "./composerMocks/",
  "debug": true,
  "mocks": true,
  "coreCache": true,
  "routerLog": false
}
